<?xml version="1.0" encoding="utf-8"?>
<!-- Generator: Adobe Illustrator 24.3.0, SVG Export Plug-In . SVG Version: 6.00 Build 0)  -->
<svg version="1.1" id="Layer_1" xmlns="http://www.w3.org/2000/svg" xmlns:xlink="http://www.w3.org/1999/xlink" x="0px" y="0px"
	 viewBox="0 0 1920 1080" style="enable-background:new 0 0 1920 1080;" xml:space="preserve">
<style type="text/css">
	.st0{fill:none;stroke:#47D7AC;stroke-width:30;stroke-linecap:round;stroke-miterlimit:10;}
</style>
<path class="st0" d="M63,612.2c206.5,26.7,349.6-169.6,524.8-242.9c105.7-43.9,169.3,20.4,108.6,120.1
	c-56.7,97.5-176.5,250.9-238.8,234c-74.7-20.2,267-311.5,470.9-340.9c41.8-6,84.9-9.2,125.7,1.4C1167.8,413,1191.9,533,1102,607
	c-43.7,33.8-102.1,43.3-157.1,38.8c-21.8-1.8-44.1-5.8-62.5-17.6s-32.1-32.9-29.8-54.7c3.3-31.1,35.4-50.1,64.7-61
	c104.5-38.9,222.7-39.6,327.6-2c23.3,8.4,46.6,19,63.7,37s26.7,44.8,18.6,68.2s-37.4,39-59.4,27.6c-21.8-11.3-26.5-42.5-15.9-64.6
	s32.1-36.8,53.4-49c165.7-94.5,382.4-92,545.9,6.3"/>
</svg>
