<svg width="238" height="114" viewBox="0 0 238 114" fill="none" xmlns="http://www.w3.org/2000/svg">
<g id="Group 25">
<path id="Vector" fill-rule="evenodd" clip-rule="evenodd" d="M52.3352 113.781C49.0038 113.781 45.8806 112.13 44.0066 109.364C42.1327 106.598 41.7609 103.103 42.9953 99.9953L60.1879 56.898L42.9953 13.7858C41.7609 10.6925 42.1327 7.18289 44.0066 4.41681C45.8806 1.65073 48.9889 0 52.3352 0H194.918C203.336 0 210.965 4.65475 214.817 12.1351L237.81 56.8831L214.817 101.616C210.965 109.111 203.351 113.751 194.918 113.751H52.3352V113.781Z" fill="#FCE08E"/>
<path id="Vector_2" fill-rule="evenodd" clip-rule="evenodd" d="M210.251 14.4847C207.292 8.72948 201.372 5.11572 194.903 5.11572H4.95147C1.45643 5.11572 -0.938033 8.64025 0.355873 11.8822L17.5782 55.0539C18.0541 56.2287 18.0541 57.5374 17.5782 58.7122L0.355873 101.884C-0.938033 105.126 1.45643 108.65 4.95147 108.65H194.903C201.372 108.65 207.292 105.037 210.251 99.2814L232.04 56.8831L210.251 14.4698V14.4847Z" fill="#F2F2F2"/>
</g>
</svg>
